[
    {
        "formula": "découverte",
        "description": "Lorem ipsum dolor sit amet consectetur, adipisicing elit. Id corrupti doloribus neque architecto ea officia, veritatis unde, inventore sint iure reiciendis eos aliquid nisi impedit pariatur error consequatur accusamus harum!",
        "imgCover": "foret.jpg",
        "imgIllustration": "foret.jpg",
        "price": 30000,
        "tourProgram": [
            {
                "title": "randonnée",
                "explanation": "Lorem ipsum dolor sit amet consectetur adipisicing elit. Autem odit molestias ut libero, voluptates at quidem labore quae voluptas incidunt voluptatem accusantium dicta est alias animi unde suscipit id nisi? Lorem ipsum dolor sit amet consectetur adipisicing elit. Autem odit molestias ut libero, voluptates at quidem labore quae voluptas incidunt voluptatem accusantium dicta est alias animi unde suscipit id nisi? libero, voluptates at quidem labore quae voluptas incidunt voluptatem accusantium dicta est alias animi unde suscipit id nisi.",
                "illustration": "foret-randonnee.webp"
            },
            {
                "title": "randonnée",
                "explanation": "Lorem ipsum dolor sit amet consectetur adipisicing elit. Autem odit molestias ut libero, voluptates at quidem labore quae voluptas incidunt voluptatem accusantium dicta est alias animi unde suscipit id nisi? Lorem ipsum dolor sit amet consectetur adipisicing elit. Autem odit molestias ut libero, voluptates at quidem labore quae voluptas incidunt voluptatem accusantium dicta est alias animi unde suscipit id nisi? libero, voluptates at quidem labore quae voluptas incidunt voluptatem accusantium dicta est alias animi unde suscipit id nisi.",
                "illustration": "foret-randonnee.webp"
            },
            {
                "title": "randonnée",
                "explanation": "Lorem ipsum dolor sit amet consectetur adipisicing elit. Autem odit molestias ut libero, voluptates at quidem labore quae voluptas incidunt voluptatem accusantium dicta est alias animi unde suscipit id nisi? Lorem ipsum dolor sit amet consectetur adipisicing elit. Autem odit molestias ut libero, voluptates at quidem labore quae voluptas incidunt voluptatem accusantium dicta est alias animi unde suscipit id nisi? libero, voluptates at quidem labore quae voluptas incidunt voluptatem accusantium dicta est alias animi unde suscipit id nisi.",
                "illustration": "foret-randonnee.webp"
            },
            {
                "title": "randonnée",
                "explanation": "Lorem ipsum dolor sit amet consectetur adipisicing elit. Autem odit molestias ut libero, voluptates at quidem labore quae voluptas incidunt voluptatem accusantium dicta est alias animi unde suscipit id nisi? Lorem ipsum dolor sit amet consectetur adipisicing elit. Autem odit molestias ut libero, voluptates at quidem labore quae voluptas incidunt voluptatem accusantium dicta est alias animi unde suscipit id nisi? libero, voluptates at quidem labore quae voluptas incidunt voluptatem accusantium dicta est alias animi unde suscipit id nisi.",
                "illustration": "foret-randonnee.webp"
            }
        ],
        "tour": "606ce59ccb741d3b12c701d7"
    },
    {
        "formula": "team building",
        "description": "Lorem ipsum dolor sit amet consectetur, adipisicing elit. Id corrupti doloribus neque architecto ea officia, veritatis unde, inventore sint iure reiciendis eos aliquid nisi impedit pariatur error consequatur accusamus harum!",
        "imgCover": "group.jpg",
        "imgIllustration": "group-union.jpg",
        "price": 50000,
        "tourProgram": [
            {
                "title": "randonnée",
                "explanation": "Lorem ipsum dolor sit amet consectetur adipisicing elit. Autem odit molestias ut libero, voluptates at quidem labore quae voluptas incidunt voluptatem accusantium dicta est alias animi unde suscipit id nisi? Lorem ipsum dolor sit amet consectetur adipisicing elit. Autem odit molestias ut libero, voluptates at quidem labore quae voluptas incidunt voluptatem accusantium dicta est alias animi unde suscipit id nisi? libero, voluptates at quidem labore quae voluptas incidunt voluptatem accusantium dicta est alias animi unde suscipit id nisi.",
                "illustration": "bini-lagune.jpg"
            },
            {
                "title": "randonnée",
                "explanation": "Lorem ipsum dolor sit amet consectetur adipisicing elit. Autem odit molestias ut libero, voluptates at quidem labore quae voluptas incidunt voluptatem accusantium dicta est alias animi unde suscipit id nisi? Lorem ipsum dolor sit amet consectetur adipisicing elit. Autem odit molestias ut libero, voluptates at quidem labore quae voluptas incidunt voluptatem accusantium dicta est alias animi unde suscipit id nisi? libero, voluptates at quidem labore quae voluptas incidunt voluptatem accusantium dicta est alias animi unde suscipit id nisi.",
                "illustration": "bini-lagune.jpg"
            },
            {
                "title": "randonnée",
                "explanation": "Lorem ipsum dolor sit amet consectetur adipisicing elit. Autem odit molestias ut libero, voluptates at quidem labore quae voluptas incidunt voluptatem accusantium dicta est alias animi unde suscipit id nisi? Lorem ipsum dolor sit amet consectetur adipisicing elit. Autem odit molestias ut libero, voluptates at quidem labore quae voluptas incidunt voluptatem accusantium dicta est alias animi unde suscipit id nisi? libero, voluptates at quidem labore quae voluptas incidunt voluptatem accusantium dicta est alias animi unde suscipit id nisi.",
                "illustration": "bini-lagune.jpg"
            },
            {
                "title": "randonnée",
                "explanation": "Lorem ipsum dolor sit amet consectetur adipisicing elit. Autem odit molestias ut libero, voluptates at quidem labore quae voluptas incidunt voluptatem accusantium dicta est alias animi unde suscipit id nisi? Lorem ipsum dolor sit amet consectetur adipisicing elit. Autem odit molestias ut libero, voluptates at quidem labore quae voluptas incidunt voluptatem accusantium dicta est alias animi unde suscipit id nisi? libero, voluptates at quidem labore quae voluptas incidunt voluptatem accusantium dicta est alias animi unde suscipit id nisi.",
                "illustration": "bini-lagune.jpg"
            }
        ],
        "tour": "606ce5f9cb741d3b12c701d8"
    }
]